data.frame vs tibble – Data Blog
…
tbl
## # A tibble: 26 × 5
##    is_vowel numbers values letters_lower letters_upper
##    <lgl>      <int>  <dbl> <chr>         <chr>        
##  1 TRUE           1    1.1 a             A            
##  2 FALSE          2    1.2 b             B            
##  3 FALSE          3    1.3 c             C            
##  4 FALSE          4    1.4 d             D            
##  5 TRUE           5    1.5 e             E            
##  6 FALSE          6    1.6 f             F            
##  7 FALSE          7    1.7 g             G            
##  8 FALSE          8    1.8 h             H            
##  9 TRUE           9    1.9 i             I            
## 10 FALSE         10    2   j             J            
## # ℹ 16 more rows
…
class(df) == class(df["values"])
## [1] TRUE

tbl["values"] # Returns a one-column tibble
## # A tibble: 26 × 1
##    values
##     <dbl>
##  1    1.1
##  2    1.2
##  3    1.3
##  4    1.4
##  5    1.5
##  6    1.6
##  7    1.7
##  8    1.8
##  9    1.9
## 10    2  
## # ℹ 16 more rows
…
Note that if the length of the vector used to define a new column is equal to the number of rows of the tibble, then everything will run smoothly.

tbl$other_numbers <- 27:52

tbl$other_numbers
##  [1] 27 28 29 30 31 32 33 34 35 36 37 38 39 40 41 42 43 44 45 46 47 48 49 50 51
## [26] 52

tbl
## # A tibble: 26 × 3
##    letters numbers other_numbers
##    <chr>     <int>         <int>
##  1 a             1            27
##  2 b             2            28
##  3 c             3            29
##  4 d             4            30
##  5 e             5            31
##  6 f             6            32
##  7 g             7            33
##  8 h             8            34
##  9 i             9            35
## 10 j            10            36
## # ℹ 16 more rows
…
